C:\Users\User\Desktop\Nocalcneeded\productservice\src\main\java\com\bharath\springcloud\ProductserviceApplication.java
C:\Users\User\Desktop\Nocalcneeded\productservice\src\main\java\com\bharath\springcloud\Coupon.java
C:\Users\User\Desktop\Nocalcneeded\productservice\src\main\java\com\bharath\springcloud\ProductRepo.java
C:\Users\User\Desktop\Nocalcneeded\productservice\src\main\java\com\bharath\springcloud\Product.java
C:\Users\User\Desktop\Nocalcneeded\productservice\src\main\java\com\bharath\springcloud\ProductRestController.java
C:\Users\User\Desktop\Nocalcneeded\productservice\src\main\java\com\bharath\springcloud\CouponClient.java
